%YAML 1.1
%TAG !u! tag:unity3d.com,2011:
--- !u!78 &1
TagManager:
  serializedVersion: 2
  tags:
  - Planet
  - Item
  - CrashedShip
  - LevelManager
  - WateredZone
  - Lake
  - BottomCrater
  - HotZone
  - Fire
  - RockToBreak
  - Lava
  - Extinguisher
  layers:
  - Default
  - TransparentFX
  - Ignore Raycast
  - 
  - Water
  - UI
  - 
  - 
  - Player
  - Items
  - OverPlayer
  - RockToBreak
  - Lava
  - 
  - 
  - 
  - 
  - 
  - 
  - 
  - 
  - 
  - 
  - 
  - 
  - 
  - 
  - 
  - 
  - 
  - 
  - 
  m_SortingLayers:
  - name: Default
    uniqueID: 0
    locked: 0
  - name: Background
    uniqueID: 2106226931
    locked: 0
  - name: Planet
    uniqueID: 3741389753
    locked: 0
  - name: UnderItems
    uniqueID: 3250429197
    locked: 0
  - name: Items
    uniqueID: 2933871759
    locked: 0
  - name: Player
    uniqueID: 3348867071
    locked: 0
  - name: OverPlayer
    uniqueID: 3243389253
    locked: 0
